Algorithms for prediction – SOCIOL 212B: Quantitative Data Analysis
…
slides through LASSO regression

Data: Baseball salaries

We will explore algorithms for prediction through a simple example dataset. The data contain the salaries of all 944 Major League Baseball Players who were on active rosters, injured lists, and restricted lists on Opening Day 2023. These data were compiled by USA Today. After scraping the data and selecting a few variables, I appended each team’s win-loss record from 2022. The data are available in baseball_population.csv.

library(tidyverse)
library(scales)
library(foreach)

baseball_population <- read_csv("https://ilundberg.github.io/soc212b/data/baseball_population.csv")

The first rows of the data are depicted below. Each row is a player. The player Madison Bumgarner had a salary of $21,882,892. His position was LHP for left-handed pitcher. His team was Arizona, and this team’s record in the previous season was 0.457, meaning that they won 45.7% of their games.

# A tibble: 944 × 5
  player               salary position team    team_past_record
  <chr>                 <dbl> <chr>    <chr>              <dbl>
1 Bumgarner, Madison 21882892 LHP      Arizona            0.457
2 Marte, Ketel       11600000 2B       Arizona            0.457
3 Ahmed, Nick        10375000 SS       Arizona            0.457
# ℹ 941 more rows
…
For OLS, we might model salary as a function of team_past_record. The code below learns this model in our sample.

ols <- lm(
  salary ~ team_past_record,
  data = baseball_sample
)

We can then make a prediction for every player on the Dodgers. Because our only predictor is a team-level predictor (team_past_record), the prediction will be the same for every player. But this may not always be the case, as further down the page when we consider position as an additional predictor.

ols_predicted <- dodgers_to_predict |>
  mutate(predicted_salary = predict(ols, newdata = dodgers_to_predict)) |>
  print(n = 3)

# A tibble: 35 × 5
  player           position team         team_past_record predicted_salary
  <chr>            <chr>    <chr>                   <dbl>            <dbl>
1 Freeman, Freddie 1B       L.A. Dodgers            0.685         5552999.
2 Heyward, Jason   OF       L.A. Dodgers            0.685         5552999.
3 Betts, Mookie    OF       L.A. Dodgers            0.685         5552999.
# ℹ 32 more rows
…
