Prediction for causal and population inference – SOCIOL 212B: Quantitative Data Analysis
…
We chose a model where treatment A is interacted with an additive function of confounders L1 + L2. This is also known as a t-learner (Kunzel et al. 2019) because it is equivalent to estimating two separate regression models of outcome on confounders, one among those for whom A == 1 and among those for whom A == 0.

2) Predict

The code below predicts the conditional average potential outcome under treatment and control at the confounder values of each observation.

First, we create data with A set to the value 1.

data_1 <- data |>
  mutate(A = 1)

# A tibble: 500 × 7
        L1     L2      Y0    Y1 propensity_score     A       Y
     <dbl>  <dbl>   <dbl> <dbl>            <dbl> <dbl>   <dbl>
1  0.00304  1.03   0.677   1.59          0.276       1  0.677 
2 -2.35    -1.66  -4.09   -3.53          0.00244     1 -4.09  
3  0.104   -0.912  0.0659  1.31          0.0569      1  0.0659
# ℹ 497 more rows

Then, we create data with A set to the value 0.

data_0 <- data |>
  mutate(A = 0)

# A tibble: 500 × 7
        L1     L2      Y0    Y1 propensity_score     A       Y
     <dbl>  <dbl>   <dbl> <dbl>            <dbl> <dbl>   <dbl>
1  0.00304  1.03   0.677   1.59          0.276       0  0.677 
2 -2.35    -1.66  -4.09   -3.53          0.00244     0 -4.09  
3  0.104   -0.912  0.0659  1.31          0.0569      0  0.0659
# ℹ 497 more rows

We use our outcome model to predict the conditional mean of the potential outcome under each scenario.

predicted <- data |>
  mutate(
    Y1_predicted = predict(model, newdata = data_1),
    Y0_predicted = predict(model, newdata = data_0),
    effect_predicted = Y1_predicted - Y0_predicted
  )

# A tibble: 500 × 10
        L1     L2      Y0    Y1 propensity_score     A       Y Y1_predicted
     <dbl>  <dbl>   <dbl> <dbl>            <dbl> <int>   <dbl>        <dbl>
1  0.00304  1.03   0.677   1.59          0.276       0  0.677         1.98 
2 -2.35    -1.66  -4.09   -3.53          0.00244     0 -4.09         -1.81 
3  0.104   -0.912  0.0659  1.31          0.0569      0  0.0659        0.451
# ℹ 497 more rows
# ℹ 2 more variables: Y0_predicted <dbl>, effect_predicted <dbl>
…
  mutate(
    yhat1 = predict(
      logistic_model_for_y1, 
      newdata = all_cases, 
      type = "response"
    ),
    yhat0 = predict(
      logistic_model_for_y0, 
      newdata = all_cases, 
      type = "response"
    ),
    effect = yhat1 - yhat0
  )

# A tibble: 7,688 × 6
     id sampling_weight a         yhat1  yhat0 effect
  <dbl>           <dbl> <chr>     <dbl>  <dbl>  <dbl>
1     1           0.989 untreated 0.254 0.0861  0.168
2     2           0.999 treated   0.726 0.562   0.164
3     3           0.967 untreated 0.177 0.0261  0.151
# ℹ 7,685 more rows
…
