SOCIOL 212B: Quantitative Data Analysis – Algorithms for prediction
…
library(tidyverse)
library(scales)
library(foreach)

Load data:

baseball_population <- read_csv(
  "https://ilundberg.github.io/soc212b/data/baseball_population.csv"
)

Data: Baseball salaries

baseball_population |> print(n = 3)

# A tibble: 944 × 5
  player               salary position team    team_past_record
  <chr>                 <dbl> <chr>    <chr>              <dbl>
1 Bumgarner, Madison 21882892 LHP      Arizona            0.457
2 Marte, Ketel       11600000 2B       Arizona            0.457
3 Ahmed, Nick        10375000 SS       Arizona            0.457
# ℹ 941 more rows
…
predict the outcome in this target population

average over units

Task: Predict Dodger mean salary

Draw a sample of 5 players per team.

baseball_sample <- baseball_population |>
  group_by(team) |>
  slice_sample(n = 5) |>
  ungroup() |>
  print()

# A tibble: 150 × 5
   player                 salary position team    team_past_record
   <chr>                   <dbl> <chr>    <chr>              <dbl>
 1 Carroll, Corbin       1625000 OF       Arizona            0.457
 2 Herrera, Jose          724300 C        Arizona            0.457
 3 Melancon, Mark*       6000000 RHP      Arizona            0.457
 4 Ahmed, Nick          10375000 SS       Arizona            0.457
 5 Robinson, Kristian**   720000 OF       Arizona            0.457
 6 Arcia, Orlando        2300000 SS       Atlanta            0.623
 7 Lee, Dylan             730000 LHP      Atlanta            0.623
 8 Pillar, Kevin         3000000 OF       Atlanta            0.623
 9 Matzek, Tyler*        1200000 LHP      Atlanta            0.623
10 Hilliard, Sam          750000 OF       Atlanta            0.623
# ℹ 140 more rows
…
Model salary as a function of team_past_record

ols <- lm(
  salary ~ team_past_record,
  data = baseball_sample
)

Ordinary Least Squares: Predict

ols_predicted <- dodgers_to_predict |>
  mutate(predicted_salary = predict(ols, newdata = dodgers_to_predict)) |>
  print(n = 3)

# A tibble: 35 × 5
  player           position team         team_past_record predicted_salary
  <chr>            <chr>    <chr>                   <dbl>            <dbl>
1 Freeman, Freddie 1B       L.A. Dodgers            0.685         5552999.
2 Heyward, Jason   OF       L.A. Dodgers            0.685         5552999.
3 Betts, Mookie    OF       L.A. Dodgers            0.685         5552999.
# ℹ 32 more rows
…
